…
`sp_num` - Número da espécie na lista

`genus` - Gênero

`epithet` - Epíteto específico

`author` - Autoria

`status` - Observações

O dataset é automaticamente carregado junto com o pacote e pode ser acessado diretamente:

```r
> amphibiansBR
# A tibble: 1,188 × 8
   order family        subfamily     sp_num genus       epithet        author status
   <chr> <chr>         <chr>         <chr>  <chr>       <chr>          <chr>  <chr> 
 1 Anura Allophrynidae NA            1      Allophryne  relicta        Caram… NA    
 2 Anura Allophrynidae NA            2      Allophryne  resplendens    Castr… NA    
 3 Anura Allophrynidae NA            3      Allophryne  ruthveni       Gaige… NA    
 4 Anura Alsodidae     NA            4      Limnomedusa macroglossa    (Dumé… NA    
 5 Anura Aromobatidae  (Allobatinae) 5      Allobates   bacurau        Simõe… NA    
 6 Anura Aromobatidae  (Allobatinae) 6      Allobates   brunneus       (Cope… NA    
 7 Anura Aromobatidae  (Allobatinae) 7      Allobates   caeruleodacty… (Lima… NA    
 8 Anura Aromobatidae  (Allobatinae) 8      Allobates   caldwellae     Lima,… recen…
 9 Anura Aromobatidae  (Allobatinae) 9      Allobates   carajas        Simõe… NA    
10 Anura Aromobatidae  (Allobatinae) 10     Allobates   conspicuus     (Mora… NA    
# … with 1,178 more rows
# ℹ Use `print(n = ...)` to see more rows
…
